<?xml version="1.0" encoding="UTF-8"?>
<svg width="20px" height="20px" viewBox="0 0 20 20" version="1.1" xmlns="http://www.w3.org/2000/svg" xmlns:xlink="http://www.w3.org/1999/xlink">
    <!-- Generator: Sketch 55.2 (78181) - https://sketchapp.com -->
    <title>icon-toggle-radio button-unchecked-20</title>
    <desc>Created with Sketch.</desc>
    <g id="icon-toggle-radio-button-unchecked-20" stroke="none" stroke-width="1" fill="none" fill-rule="evenodd">
        <path d="M10,1 C15,1 19,5 19,10 C19,15 15,19 10,19 C5,19 1,15 1,10 C1,5 5,1 10,1 L10,1 Z M10,0 C4.5,0 0,4.5 0,10 C0,15.5 4.5,20 10,20 C15.5,20 20,15.5 20,10 C20,4.5 15.5,0 10,0 Z" id="icon-color" fill="#ADADAD" fill-rule="nonzero"></path>
    </g>
</svg>