{
  "extends": [
    "tslint:all",
    "tslint-react"
  ],
  "rules": {
    "linebreak-style": false,
    "align": false,
    "member-ordering": false,
    "strict-boolean-expressions": false,
    "no-string-literal": false,
    "typedef": [
      true,
      "call-signature",
      "arrow-call-signature",
      "parameter",
      "arrow-parameter",
      "property-declaration",
      "member-variable-declaration"
    ],
    "file-name-casing": [
      true,
      "kebab-case"
    ],
    "variable-name": [
      true,
      "allow-pascal-case"
    ],
    "prefer-function-over-method": false,
    "no-null-keyword": false,
    "completed-docs": false,
    "no-default-import": false,
    "jsx-curly-spacing": [
      true,
      "always"
    ],
    "jsx-no-multiline-js": false
  }
}