<?xml version="1.0" encoding="UTF-8"?>
<svg width="16px" height="16px" viewBox="0 0 16 16" version="1.1" xmlns="http://www.w3.org/2000/svg" xmlns:xlink="http://www.w3.org/1999/xlink">
    <!-- Generator: Sketch 55.1 (78136) - https://sketchapp.com -->
    <title>icon-navigation-add-16</title>
    <desc>Created with Sketch.</desc>
    <defs>
        <polygon id="path-1" points="8.5 7.5 8.5 3.5 7.5 3.5 7.5 7.5 3.5 7.5 3.5 8.5 7.5 8.5 7.5 12.5 8.5 12.5 8.5 8.5 12.5 8.5 12.5 7.5"></polygon>
    </defs>
    <g id="icon-navigation-add-16" stroke="none" stroke-width="1" fill="none" fill-rule="evenodd">
        <mask id="mask-2" fill="white">
            <use xlink:href="#path-1"></use>
        </mask>
        <use id="icon-color" fill="#252B39" xlink:href="#path-1"></use>
    </g>
</svg>