<?xml version="1.0" encoding="UTF-8"?>
<svg width="16px" height="16px" viewBox="0 0 16 16" version="1.1" xmlns="http://www.w3.org/2000/svg" xmlns:xlink="http://www.w3.org/1999/xlink">
    <!-- Generator: Sketch 55.1 (78136) - https://sketchapp.com -->
    <title>icon-navigation-chevron-up-16</title>
    <desc>Created with Sketch.</desc>
    <g id="icon-navigation-chevron-up-16" stroke="none" stroke-width="1" fill="none" fill-rule="evenodd">
        <polygon id="icon-color" fill="#252B39" transform="translate(8.000000, 7.853500) scale(1, -1) translate(-8.000000, -7.853500) " points="8 10.707 3 5.707 3.707 5 8 9.293 12.293 5 13 5.707"></polygon>
    </g>
</svg>