<?xml version="1.0" encoding="UTF-8"?>
<svg width="16px" height="16px" viewBox="0 0 16 16" version="1.1" xmlns="http://www.w3.org/2000/svg" xmlns:xlink="http://www.w3.org/1999/xlink">
    <!-- Generator: Sketch 55.1 (78136) - https://sketchapp.com -->
    <title>icon-navigation-close-16</title>
    <desc>Created with Sketch.</desc>
    <g id="icon-navigation-close-16" stroke="none" stroke-width="1" fill="none" fill-rule="evenodd">
        <polygon id="icon-color" fill="#252B39" points="8.707 8 12 4.707 11.293 4 8 7.293 4.707 4 4 4.707 7.293 8 4 11.293 4.707 12 8 8.707 11.293 12 12 11.293"></polygon>
    </g>
</svg>